…
Looking here, we know these errand dots are not proper.  Digging into zip-codes. I find that zipcodes between 32000 and 34999 are proper for Florida. (http://www.zipcodestogo.com/Florida/) All others I will remove.   

Some of those donations could likely be by members of the armed services or simply living part time in other states, I'll look at that too.


```
## # A tibble: 79 x 3
## # Groups:   city [78]
##              city state count
##             <chr> <chr> <int>
##  1        Wayland    OH    13
##  2       New York    NY     8
##  3         Draper    VA     7
##  4          Milan    IL     7
##  5 Fort Blackmore    VA     6
##  6      Irvington    VA     5
##  7     Loganville    GA     5
##  8        Chelsea    AL     4
##  9    Southampton    NY     4
## 10     Washington    DC     4
## # ... with 69 more rows
```
…
Looking at this, we can see that my hunch was pretty accurate.  Most metropolitan areas are covered with Democratic donations as well as military towns Pensacola, Eglin Air Force Base and Jacksonville.   The majority of the blue markers show up in more rural areas, or the more expensive retirement areas around Ft. Lauderdale.  


```
## # A tibble: 1,184 x 3
## # Groups:   city [545]
##                city  party  donors
##              <fctr> <fctr>   <dbl>
##  1            Miami    DEM 1856468
##  2            Miami    REP  691288
##  3  Fort Lauderdale    DEM  617271
##  4          Orlando    DEM  374617
##  5            Tampa    DEM  355488
##  6     Jacksonville    DEM  279497
##  7     Jacksonville    REP  207747
##  8  Fort Lauderdale    REP  169423
##  9 Saint Petersburg    DEM  156674
## 10          Orlando    REP  155103
## # ... with 1,174 more rows
```
…
